{
    "openapi": "3.0.0",
    "info": {
      "title": "Player API Challenge Ch 8",
      "description": "Dokumentasi API untuk players",
      "version": "1.0.0"
    },
    "servers": [
      {
        "url": "http://localhost:4000/api/v1"
      }
    ],
    "paths": {
      "/players": {
        "get": {
          "tags": [
            "Players"
          ],
          "summary": "Get all players",
          "operationId": "getPlayers",
          "parameters": [
            {
              "name": "username",
              "in": "query",
              "description": "Filter by username",
              "schema": {
                "type": "string"
              }
            },
            {
              "name": "email",
              "in": "query",
              "description": "Filter by email",
              "schema": {
                "type": "string"
              }
            },
            {
              "name": "experience",
              "in": "query",
              "description": "Filter by experience",
              "schema": {
                "type": "integer"
              }
            },
            {
              "name": "lvl",
              "in": "query",
              "description": "Filter by level",
              "schema": {
                "type": "integer"
              }
            }
          ],
          "responses": {
            "200": {
              "description": "OK",
              "content": {
                "application/json": {
                  "schema": {
                    "type": "array",
                    "items": {
                      "$ref": "#/components/schemas/Player"
                    }
                  }
                }
              }
            }
          }
        },
        "post": {
          "tags": [
            "Players"
          ],
          "summary": "Create a new player",
          "operationId": "createPlayer",
          "requestBody": {
            "required": true,
            "content": {
              "application/json": {
                "schema": {
                  "$ref": "#/components/schemas/PlayerInput"
                }
              }
            }
          },
          "responses": {
            "201": {
              "description": "Created",
              "content": {
                "application/json": {
                  "schema": {
                    "$ref": "#/components/schemas/Player"
                  }
                }
              }
            }
          }
        }
      },
      "/players/{id}": {
        "get": {
          "tags": [
            "Players"
          ],
          "summary": "Get a player by ID",
          "operationId": "getPlayerById",
          "parameters": [
            {
              "name": "id",
              "in": "path",
              "description": "Player ID",
              "required": true,
              "schema": {
                "type": "string"
              }
            }
          ],
          "responses": {
            "200": {
              "description": "OK",
              "content": {
                "application/json": {
                  "schema": {
                    "$ref": "#/components/schemas/Player"
                  }
                }
              }
            },
            "404": {
              "description": "Player not found"
            }
          }
        },
        "put": {
          "tags": [
            "Players"
          ],
          "summary": "Update a player by ID",
          "operationId": "updatePlayer",
          "parameters": [
            {
              "name": "id",
              "in": "path",
              "description": "Player ID",
              "required": true,
              "schema": {
                "type": "string"
              }
            }
          ],
          "requestBody": {
            "required": true,
            "content": {
              "application/json": {
                "schema": {
                  "$ref": "#/components/schemas/PlayerInput"
                }
              }
            }
          },
          "responses": {
            "200": {
              "description": "Player updated successfully",
              "content": {
                "application/json": {
                  "schema": {
                    "$ref": "#/components/schemas/Player"
                  }
                }
              }
            },
            "404": {
              "description": "Player not found"
            }
          }
        },
        "delete": {
          "tags": [
            "Players"
          ],
          "summary": "Delete a player by ID",
          "operationId": "deletePlayer",
          "parameters": [
            {
              "name": "id",
              "in": "path",
              "description": "Player ID",
              "required": true,
              "schema": {
                "type": "string"
              }
            }
          ],
          "responses": {
            "200": {
              "description": "Player deleted successfully"
            },
            "400": {
              "description": "Player not found"
            }
          }
        }
      },
      "/players/exp/{id}": {
        "post": {
          "tags": [
            "Players"
          ],
          "summary": "Update player's experience by ID",
          "operationId": "updateExperience",
          "parameters": [
            {
              "name": "id",
              "in": "path",
              "description": "Player ID",
              "required": true,
              "schema": {
                "type": "string"
              }
            }
          ],
          "requestBody": {
            "required": true,
            "content": {
              "application/json": {
                "schema": {
                  "type": "object",
                  "properties": {
                    "experience": {
                      "type": "integer"
                    }
                  }
                }
              }
            }
          },
          "responses": {
            "200": {
              "description": "Experience updated successfully"
            },
            "400": {
              "description": "Invalid request"
            },
            "404": {
              "description": "Player not found"
            }
          }
        }
      }
    },
    "components": {
      "schemas": {
        "Player": {
          "type": "object",
          "properties": {
            "id": {
              "type": "string"
            },
            "username": {
              "type": "string"
            },
            "email": {
              "type": "string"
            },
            "experience": {
              "type": "integer"
            },
            "lvl": {
              "type": "integer"
            }
          }
        },
        "PlayerInput": {
          "type": "object",
          "properties": {
            "username": {
              "type": "string"
            },
            "email": {
              "type": "string"
            },
            "experience": {
              "type": "integer"
            },
            "lvl": {
              "type": "integer"
            }
          }
        }
      }
    }
  }